<?xml version="1.0" encoding="utf-8"?>
<!-- Generator: Adobe Illustrator 19.0.0, SVG Export Plug-In . SVG Version: 6.00 Build 0)  -->
<svg version="1.1" id="Layer_1" xmlns="http://www.w3.org/2000/svg" xmlns:xlink="http://www.w3.org/1999/xlink" x="0px" y="0px"
	 viewBox="0 0 225 198" style="enable-background:new 0 0 225 198;" xml:space="preserve">
<style type="text/css">
	.st0{fill:none;}
	.st1{fill:#8DC63F;}
</style>
<g id="XMLID_4_">
	<g id="XMLID_41_">
		<path id="XMLID_67_" d="M23.6,109.1c3.5-0.4,2.6,2.2,2.1,5.8l-13,81.7L0,198l14-87.8L23.6,109.1z M44.4,193.3l-14.2,1.5L20,152.3
			l23.6-45l14-1.5L33.1,151L44.4,193.3z"/>
	</g>
	<g id="XMLID_44_">
		<path id="XMLID_57_" d="M78,166.2l-23.1,2.4c-4,0.4-4.9-1-4.3-4.8l8.5-53.1c0.6-3.9,2.6-5.6,6-5.9l23.1-2.4l-1.5,9.4l-16.7,1.7
			c-1.9,0.2-2.7,0.9-2.9,2.6l-2.4,15l14.7-1.5l-1.5,9.4l-14.7,1.5l-2.5,15.6c-0.4,2.3,0.5,2.6,2.4,2.3l16.4-1.7L78,166.2z"/>
	</g>
	<g id="XMLID_46_">
		<path id="XMLID_40_" d="M95.6,159c-0.6,3.8-0.9,5.5-4.2,5.8l-6.1,0.6l4.3-26.9L82.2,103l10.1-1.1l4.5,20.6l11.4-22.2l10.1-1.1
			l-19.3,38.3L95.6,159z"/>
	</g>
	<g id="XMLID_48_">
		<path id="XMLID_34_" d="M119.1,98.9l34.4-3.6c5.8-0.6,6.7,2.5,6,6.6L148,174.7c-0.7,4.3-2.9,7.7-8,8.2l-34.8,3.6L119.1,98.9z
			 M145.8,111.9c0.5-3.3-0.7-4.5-3.6-4.2l-12.5,1.3l-10.2,64.1l12.5-1.3c3.5-0.4,4.7-2.2,5.1-5L145.8,111.9z"/>
	</g>
	<g id="XMLID_51_">
		<path id="XMLID_25_" d="M181.2,92.5c2.7-0.3,4.1,0.3,4.3,5.8l1.5,55.9l-9.9,1l-0.7-48.4l-6.7,20.1c4.4,0.5,5.6,1.2,5.6,1.2
			s-8.7,11.8-15.8,28.9l-9.5,1l22.5-64.6L181.2,92.5z"/>
	</g>
	<g id="XMLID_60_">
		<path id="XMLID_22_" d="M202.5,147.2c-0.6,3.8-0.9,5.4-4.2,5.8l-6.1,0.6l4.3-26.7l-7.3-35.3l10-1l4.4,20.4L215,89l10-1l-19.1,38
			L202.5,147.2z"/>
	</g>
</g>
<g id="XMLID_1_">
	<path id="XMLID_8_" d="M75.3,41c26.4-24.9,66.3-25.4,89.1-1.1c11.9,12.7,16.8,29.7,15,46.5c1.4-0.1,2.7-0.3,4.1-0.5
		c1.8-17.8-3.4-35.6-16-48.9c-24.2-25.8-66.8-25.3-94.8,1.2C55.2,54.7,47.4,77.5,49.9,98.6c0.2,0,0.5,0,0.7,0
		c0.5-0.2,1.1-0.3,1.8-0.3c0.1,0,0.2,0,0.3,0c0.4-0.2,0.8-0.4,1.2-0.5C51.5,78,58.8,56.6,75.3,41z"/>
</g>
<g id="XMLID_9_">
	<path id="XMLID_12_" class="st0" d="M186.1,85.5c-0.3-0.9-0.5-1.9-0.5-2.9c-0.1-3.1,4.7-3.1,4.8,0c0,0.5,0.1,1,0.2,1.4
		c3-40.3-27.1-73-67.6-73c-40.8,0-76.9,33.2-80.5,74c-0.4,4.8-0.4,9.4,0.1,13.9l11.2-1c-0.1-0.5-0.1-1-0.2-1.5
		c13.3-1.2,25.4-6.9,37-17.2c1.7-2,4.4-4.9,6.8-8c6.1-7.9,13.9-11.5,23.3-10.7c6.1,0.5,11.1,3.4,14.9,7.8c1.1,1.2,2.2,1.4,3.2,0.6
		c1.1-0.8,1.2-2.2,0.1-3.4c-1.2-1.3-2.4-2.6-3.8-3.7c-12.3-9.8-32.1-6-42,7.9c-3.7,5.2-8.2,9.6-13.5,13.1
		c-8.3,5.6-17.1,8.7-26.4,9.5c0-1.5,0-3,0-4.6c0.2,0,0.3,0,0.5,0c5-0.4,10-1.7,14.7-3.8c1.5-0.7,2.2-1.8,1.7-3
		c-0.4-1.2-1.5-1.5-3-0.9C67.1,80,67,80,66.9,80.1c-4.3,1.8-8.7,3-13.2,3.3c0.2-1.5,0.4-3.1,0.7-4.6c0.3-1.4,0.6-2.9,0.9-4.3
		c0.4-1.6,0.9-3.2,1.4-4.8c5.7-1.1,10.9-3.9,15.9-8.3c2.9-3.4,6-7,9.1-10.7c0.8-1,0.8-2,0-2.9c-0.8-0.8-2.1-0.7-3,0.2
		c-1.7,1.8-3.4,3.6-4.9,5.6c-3.2,4.3-6.9,8-11.9,10.2c-1.1,0.5-2.3,0.9-3.4,1.2c0.8-2,1.7-3.9,2.8-5.9c3.5-6.7,8.2-12.9,14.1-18.5
		c26.6-25,66.7-25.6,89.6-1.2c1.9,2,3.6,4.2,5.2,6.4c8.2,11.7,11.4,26,9.8,40.2L186.1,85.5z"/>
	<path id="XMLID_33_" class="st0" d="M125.3,77.7c-2.7-3.7-7.7-4.9-12.5-2.9c-2.9,1.2-4.8,3.5-6.7,5.9c-3.9,5.2-8.5,9.7-13.6,13.6
		l7.1-0.7c4.6-3.9,8.4-8.6,12.1-13.3c2.1-2.7,5.7-3.3,8.5-1.4c3,2,3.9,5.6,1.9,8.5c-1,1.5-2.2,3-3.3,4.4l5.6-0.5
		c0.1-0.1,0.2-0.2,0.2-0.3C127.8,87.2,127.9,81.3,125.3,77.7z"/>
	<path id="XMLID_35_" class="st0" d="M144.4,57.7c-6.6-6.8-14.9-10.3-24.8-10.2c-11.8,0.1-22,4.6-30.3,13.7
		c-3.9,4.3-7,9.2-11.7,12.6c-1.3,0.9-1.5,2.2-0.8,3.2c0.7,0.9,2.2,1,3.4-0.1c2.9-2.8,6-5.6,8.6-8.7c3.1-3.8,6.2-7.6,10.3-10.4
		c19.1-13,41.8-4.9,48.4,12.9c2.3,6.2,2.7,12.3,1.3,18.2l4.1-0.4C155,77.4,152.1,65.7,144.4,57.7z"/>
	<path id="XMLID_53_" d="M81.8,91.4c3.7-2.4,7.2-5.2,10-7.3c2.5-2.8,4.4-4.8,6.2-6.8c0.9-1.1,2.2-1.3,3.1-0.6c1,0.8,1.1,2,0.1,3.2
		c-5.4,6.2-11.3,11.3-17.6,15.2l8.9-0.8c5.1-3.9,9.6-8.4,13.6-13.6c1.9-2.4,3.7-4.8,6.7-5.9c4.9-1.9,9.8-0.8,12.5,2.9
		c2.6,3.7,2.5,9.5-0.6,13.3c-0.1,0.1-0.2,0.2-0.2,0.3l5.4-0.5c3.1-5.7,2.7-12.2-1.4-16.8c-4.7-5.3-12.4-6.4-19-2.7
		c-0.4,0.2-0.8,0.5-1.2,0.7c-1.1,0.5-2,0.2-2.6-0.8c-0.5-0.9-0.3-1.9,0.6-2.6c0.9-0.6,1.9-1.2,2.9-1.6c7-3.2,17-2.7,22.9,4.7
		c3.9,4.8,4.8,12.3,2.4,18.7l5.1-0.5c1.1-3.5,1.3-7.1,0.7-10.8c-0.1-0.4-0.2-0.8-0.2-1.3c-0.2-1.4,0.5-2.4,1.7-2.7
		c1.2-0.3,2.2,0.3,2.5,1.7c0.8,3.9,0.7,7.8-0.2,11.8c-0.1,0.3-0.2,0.6-0.2,0.9l4.9-0.5c1.4-6,1-12.1-1.3-18.2
		c-6.7-17.9-29.4-25.9-48.4-12.9C95,60.6,92,64.4,88.8,68.2c-2.6,3.1-5.7,5.9-8.6,8.7c-1.2,1.1-2.7,1-3.4,0.1
		c-0.7-0.9-0.5-2.3,0.8-3.2c4.7-3.5,7.9-8.4,11.7-12.6c8.3-9.2,18.5-13.6,30.3-13.7c9.9-0.1,18.2,3.4,24.8,10.2
		c7.7,8.1,10.6,19.7,8.5,30.9l13.8-1.3c1.8-11.3-0.4-22.2-6.9-32.5c-12.9-20.4-39.5-26.7-62.7-15.2c-2.3,1.1-4.5,2.6-6.8,3.9
		c-1.3,0.7-2.5,0.6-3.1-0.3c-0.7-1-0.3-2.3,1-3.1c10.6-7.1,22-10.5,34.2-10.2c14.2,0.3,26,5.5,33,12.7c12.1,12.8,17,28.8,15.3,44.3
		l4.9-0.5c1.2-9.8-0.2-19.4-4-28.8c-0.1-0.3-0.3-0.6-0.4-0.9c-0.5-1.3,0-2.4,1.2-3c1.1-0.5,2.2-0.2,2.7,1c0.6,1.4,1.2,2.7,1.7,4.2
		c3,9.1,4,18.2,3,27.1l0.1,0c1.5-14.2-1.7-28.4-9.8-40.2c0.2,0.6,0.2,1.2-0.3,1.7c-0.5,0.6-1.5,1.1-2.1,1c-0.7-0.1-1.4-0.8-1.9-1.4
		c-2.3-2.6-4.4-5.4-7-7.7c-8.5-8-18.8-12.7-30.7-14c-15.6-1.8-30.3,2.3-43.8,11.8c-5.9,4.2-10.8,9.4-15.2,15.2
		c-2.2,3-4.9,5.2-7.9,6.6c-1,1.9-1.9,3.9-2.8,5.9c1.1-0.3,2.3-0.7,3.4-1.2c5-2.2,8.7-5.9,11.9-10.2c1.5-2,3.2-3.8,4.9-5.6
		c0.9-1,2.2-1,3-0.2c0.8,0.9,0.8,1.9,0,2.9c-3.1,3.7-6.2,7.3-9.1,10.7c-4.9,4.4-10.2,7.2-15.9,8.3c-0.5,1.6-1,3.2-1.4,4.8
		c8.9-1.2,16.4-5.4,22.5-12.4c2.9-3.2,5.4-6.9,8.5-9.8c10.8-9.9,23.4-14.4,37.4-13.6c0.8,0,1.7,0.5,2.1,1c0.3,0.4,0.3,1.6-0.1,2.1
		c-0.5,0.6-1.5,1-2.2,1.1c-2.5,0.1-5-0.1-7.6,0.1c-12.5,1.2-22.8,6.9-31.2,16.7c-2.4,2.9-4.7,6-7.5,8.5c-6.9,6.2-14.6,9.7-23,10.6
		c-0.3,1.5-0.5,3.1-0.7,4.6c4.5-0.3,8.9-1.5,13.2-3.3c0.1-0.1,0.3-0.1,0.4-0.2c1.5-0.6,2.6-0.2,3,0.9c0.5,1.2-0.2,2.3-1.7,3
		c-4.8,2.1-9.7,3.4-14.7,3.8c-0.2,0-0.3,0-0.5,0c-0.1,1.5-0.1,3,0,4.6c9.3-0.7,18.2-3.8,26.4-9.5c5.3-3.6,9.8-7.9,13.5-13.1
		c9.9-13.9,29.7-17.7,42-7.9c1.4,1.1,2.6,2.4,3.8,3.7c1.1,1.2,1,2.6-0.1,3.4c-1,0.8-2.2,0.6-3.2-0.6c-3.9-4.5-8.8-7.3-14.9-7.8
		c-9.4-0.8-17.2,2.8-23.3,10.7c-2.4,3.1-5.1,6-6.8,8c-11.5,10.4-23.6,16-37,17.2c0,0.5,0.1,1,0.2,1.5L73,96.1
		C76,94.8,78.9,93.2,81.8,91.4z M132.7,42.4c0.5-1.1,1.8-1.7,3-1.1c3.5,1.8,7,3.6,10.3,5.6c2,1.2,3.6,3,4.7,3.9
		c7.5,8.3,11.3,17.3,11.8,27.9c0,0.8-0.2,1.7-0.6,2.3c-0.4,0.5-1.5,0.8-2.1,0.6c-0.6-0.1-1.2-0.9-1.4-1.5c-0.3-0.7-0.1-1.5-0.2-2.3
		c-1.5-15.6-9.5-26.3-23.5-32.4c-0.3-0.1-0.5-0.2-0.8-0.3C132.6,44.7,132.1,43.6,132.7,42.4z"/>
	<path id="XMLID_59_" d="M120.2,78.9c-2.8-1.9-6.4-1.3-8.5,1.4c-3.7,4.7-7.5,9.4-12.1,13.3l7-0.7c2.8-2.8,5.3-5.9,7.7-9.1
		c1-1.3,2.2-1.7,3.3-1c1,0.7,1.1,2.1,0.1,3.3c-1.8,2.2-3.7,4.3-5.3,6.2l6.4-0.6c1.1-1.4,2.2-2.9,3.3-4.4
		C124.1,84.4,123.2,80.9,120.2,78.9z"/>
	<path id="XMLID_64_" class="st1" d="M155.4,42.6c-7-7.2-18.8-12.4-33-12.7c-12.2-0.3-23.6,3.1-34.2,10.2c-1.3,0.9-1.6,2.1-1,3.1
		c0.6,0.9,1.8,1,3.1,0.3c2.3-1.3,4.5-2.8,6.8-3.9c23.2-11.5,49.8-5.1,62.7,15.2c6.5,10.3,8.7,21.2,6.9,32.5l3.9-0.4
		C172.4,71.4,167.5,55.4,155.4,42.6z"/>
	<path id="XMLID_68_" class="st1" d="M69.1,52.5c4.3-5.8,9.3-11,15.2-15.2c13.5-9.6,28.1-13.6,43.8-11.8c12,1.4,22.2,6.1,30.7,14
		c2.5,2.4,4.6,5.2,7,7.7c0.5,0.6,1.2,1.3,1.9,1.4c0.6,0.1,1.6-0.5,2.1-1c0.5-0.6,0.5-1.2,0.3-1.7c-1.6-2.2-3.3-4.4-5.2-6.4
		c-22.9-24.4-63-23.8-89.6,1.2c-5.9,5.5-10.6,11.8-14.1,18.5C64.2,57.6,66.9,55.4,69.1,52.5z"/>
	<path id="XMLID_69_" class="st1" d="M176.8,59c-0.5-1.4-1-2.8-1.7-4.2c-0.5-1.2-1.7-1.5-2.7-1c-1.2,0.6-1.6,1.7-1.2,3
		c0.1,0.3,0.3,0.6,0.4,0.9c3.8,9.4,5.2,19,4,28.8l4.2-0.4C180.7,77.1,179.7,68.1,176.8,59z"/>
	<path id="XMLID_71_" class="st1" d="M144.1,88.5c0.9-4,1-7.9,0.2-11.8c-0.3-1.3-1.3-2-2.5-1.7c-1.2,0.3-1.9,1.3-1.7,2.7
		c0.1,0.4,0.2,0.8,0.2,1.3c0.6,3.7,0.4,7.4-0.7,10.8l4.2-0.4C144,89.1,144.1,88.8,144.1,88.5z"/>
	<path id="XMLID_72_" class="st1" d="M84.8,59.7c8.4-9.8,18.7-15.6,31.2-16.7c2.5-0.2,5,0,7.6-0.1c0.8,0,1.7-0.5,2.2-1.1
		c0.4-0.5,0.4-1.6,0.1-2.1c-0.4-0.6-1.4-1-2.1-1c-14-0.8-26.6,3.7-37.4,13.6c-3.2,2.9-5.7,6.5-8.5,9.8C71.7,69,64.2,73.3,55.3,74.5
		c-0.4,1.4-0.7,2.9-0.9,4.3c8.4-0.9,16.1-4.4,23-10.6C80.1,65.7,82.4,62.6,84.8,59.7z"/>
	<path id="XMLID_73_" class="st1" d="M117.6,86.2c1-1.2,1-2.6-0.1-3.3c-1.1-0.7-2.3-0.3-3.3,1c-2.4,3.2-5,6.2-7.7,9.1l5.8-0.5
		C114,90.5,115.8,88.3,117.6,86.2z"/>
	<path id="XMLID_74_" class="st1" d="M132.2,71.6c-6-7.5-16-8-22.9-4.7c-1,0.5-2,1-2.9,1.6c-0.9,0.7-1.1,1.7-0.6,2.6
		c0.5,1,1.4,1.3,2.6,0.8c0.4-0.2,0.8-0.4,1.2-0.7c6.5-3.7,14.3-2.6,19,2.7c4.1,4.6,4.5,11.1,1.4,16.8l4.7-0.4
		C137.1,83.9,136.1,76.4,132.2,71.6z"/>
	<path id="XMLID_76_" class="st1" d="M101.2,79.9c1-1.1,0.9-2.4-0.1-3.2c-0.9-0.7-2.2-0.4-3.1,0.6c-1.8,2-3.7,4-6.2,6.8
		c-2.8,2.1-6.2,4.9-10,7.3c-2.9,1.8-5.8,3.4-8.8,4.7l10.6-1C89.9,91.1,95.8,86.1,101.2,79.9z"/>
	<path id="XMLID_78_" class="st1" d="M133.9,45.2c0.3,0.1,0.5,0.2,0.8,0.3c14,6.1,22,16.8,23.5,32.4c0.1,0.8-0.1,1.6,0.2,2.3
		c0.2,0.6,0.8,1.3,1.4,1.5c0.6,0.1,1.7-0.2,2.1-0.6c0.5-0.6,0.7-1.5,0.6-2.3c-0.5-10.6-4.3-19.6-11.8-27.9c-1.1-0.9-2.7-2.7-4.7-3.9
		c-3.3-2.1-6.8-3.8-10.3-5.6c-1.2-0.6-2.5-0.1-3,1.1C132.1,43.6,132.6,44.7,133.9,45.2z"/>
	<path id="XMLID_13_" d="M123.9,0C77.1,0,35.6,38.1,31.5,85c-0.4,4.2-0.4,8.2-0.2,12.2c0.1,1.5,1.4,2.6,2.9,2.5l5.9-0.5
		c1.4-0.1,2.5-1.4,2.4-2.8c-0.3-3.7-0.2-7.5,0.1-11.4c3.6-40.8,39.7-74,80.5-74c40.5,0,70.4,32.8,67.6,73c0.2,0.4,0.4,0.7,0.8,0.9
		c0.1,0,0.2,0.1,0.3,0.1l7.7-0.7c1.3-0.1,2.3-1.2,2.4-2.4C204,36.4,169.7,0,123.9,0z"/>
</g>
<path id="XMLID_5_" class="st1" d="M55,191.3l37.5-4c1.5-0.2,2.7-1.2,2.9-2.4l1-7.7c0.2-1.7-1.6-3.2-3.8-2.9l-37.3,4.4
	c-1.5,0.2-2.7,1.1-2.8,2.3l-1.2,7.2C51,190,52.8,191.5,55,191.3z"/>
<path id="XMLID_3_" class="st1" d="M159.1,179.8l37.5-4c1.5-0.2,2.7-1.2,2.9-2.4l1-7.7c0.2-1.7-1.6-3.2-3.8-2.9l-37.3,4.4
	c-1.5,0.2-2.7,1.1-2.8,2.3l-1.2,7.2C155.1,178.6,157,180,159.1,179.8z"/>
</svg>
